…
For demonstration purposes, the number of positive cases is reduced such that is represents about 10% of the available data.

negative_class <- sample_df %>%
  filter(Class == "benign")

positive_class <- sample_df %>%
  filter(Class == "malignant") %>%
  sample_frac(0.2)

model_df <- bind_rows(negative_class, positive_class)

model_df

## # A tibble: 492 x 10
##    Class     X2    X3    X4    X5    X6    X7    X8    X9   X10
##    <chr>  <dbl> <dbl> <dbl> <dbl> <dbl> <dbl> <dbl> <dbl> <dbl>
##  1 benign     5     1     1     1     2     1     3     1     1
##  2 benign     5     4     4     5     7    10     3     2     1
##  3 benign     3     1     1     1     2     2     3     1     1
##  4 benign     6     8     8     1     3     4     3     7     1
##  5 benign     4     1     1     3     2     1     3     1     1
##  6 benign     1     1     1     1     2    10     3     1     1
##  7 benign     2     1     2     1     2     1     3     1     1
##  8 benign     2     1     1     1     2     1     1     1     5
##  9 benign     4     2     1     1     2     1     2     1     1
## 10 benign     1     1     1     1     1     1     3     1     1
## # ... with 482 more rows
…
