…
The collection of documents I am working with is a sample of documents that appeared on the Reuters newswire in 1987. These data are commonly used for demonstrating text mining applications.

The first step is to load the raw text documents into the R session. The readr::read_lines() function reads text line by line and converts each line of text to a row in a table. This is the general approach to converting text documents to a familiar tabular data structure.

reuters = list(
  reuters_train = readr::read_lines("reuters-train"),
  reuters_test = readr::read_lines("reuters-test")
) %>%
  map(., function(x) tibble::tibble(txt = x))

reuters

## $reuters_train
## # A tibble: 311,980 x 1
##    txt                                                                     
##    <chr>                                                                   
##  1 "<REUTERS TOPICS=\"YES\" LEWISSPLIT=\"TRAIN\" CGISPLIT=\"TRAINING-SET\"~
##  2 <DATE>26-FEB-1987 15:01:01.79</DATE>                                    
##  3 <TOPICS><D>cocoa</D></TOPICS>                                           
##  4 <PLACES><D>el-salvador</D><D>usa</D><D>uruguay</D></PLACES>             
##  5 <PEOPLE></PEOPLE>                                                       
##  6 <ORGS></ORGS>                                                           
##  7 <EXCHANGES></EXCHANGES>                                                 
##  8 <COMPANIES></COMPANIES>                                                 
##  9 "<UNKNOWN> "                                                            
## 10 &#5;&#5;&#5;C T                                                         
## # ... with 311,970 more rows
## 
## $reuters_test
## # A tibble: 105,392 x 1
##    txt                                                                     
##    <chr>                                                                   
##  1 "<REUTERS TOPICS=\"YES\" LEWISSPLIT=\"TEST\" CGISPLIT=\"TRAINING-SET\" ~
##  2 <DATE> 8-APR-1987 01:03:47.52</DATE>                                    
##  3 <TOPICS><D>trade</D></TOPICS>                                           
##  4 <PLACES><D>hong-kong</D><D>usa</D><D>japan</D><D>taiwan</D><D>malaysia<~
##  5 <PEOPLE></PEOPLE>                                                       
##  6 <ORGS></ORGS>                                                           
##  7 <EXCHANGES></EXCHANGES>                                                 
##  8 <COMPANIES></COMPANIES>                                                 
##  9 "<UNKNOWN> "                                                            
## 10 &#5;&#5;&#5;RM C                                                        
## # ... with 105,382 more rows
…
Apply get_document_text() to training and testing sets and return a data structure with one-row-per-document and the body of the article.

document_text = reuters %>%
  map(., get_document_text)

document_text

## $reuters_train
## # A tibble: 8,762 x 2
##    doc_id body_text                                                        
##     <int> <chr>                                                            
##  1      1 showers continued throughout the week in the bahia cocoa zone  a~
##  2      2 the u s  agriculture department reported the farmer owned reserv~
##  3      3 argentine grain board figures show crop registrations of grains ~
##  4      4 moody s investors service inc said it lowered the debt and prefe~
##  5      5 champion products inc said its board of directors approved a two~
##  6      6 computer terminal systems inc said it has completed the sale of ~
##  7      7 shr    cts vs      dlrs     net         vs               assets ~
##  8      8 ohio mattress co said its first quarter  ending february     pro~
##  9      9 oper shr loss two cts vs profit seven cts     oper shr profit   ~
## 10     10 shr one dlr vs    cts     net      mln vs      mln     revs     ~
## # ... with 8,752 more rows
## 
## $reuters_test
## # A tibble: 3,009 x 2
##    doc_id body_text                                                        
##     <int> <chr>                                                            
##  1      1 mounting trade friction between the u s  and japan has raised fe~
##  2      2 a survey of    provinces and seven cities showed vermin consume ~
##  3      3 the ministry of international trade and industry  miti  will rev~
##  4      4 thailand s trade deficit widened to     billion baht in the firs~
##  5      5 indonesia expects crude palm oil  cpo  prices to rise sharply to~
##  6      7 tug crews in new south wales  nsw   victoria and western austral~
##  7      8 the indonesian commodity exchange is likely to start trading in ~
##  8      9 food department officials said the u s  department of agricultur~
##  9     10 western mining corp holdings ltd  lt wmng s   wmc  said it will ~
## 10     11 sumitomo bank ltd  lt sumi t  is certain to lose its status as j~
## # ... with 2,999 more rows
…
Run seach_document_for_topic("earn") to obtain indexed collection of documents containing “earn” in the set of topics.

# create reference table of matching docs
documents_with_earn = search_documents_for_topic("earn")

documents_with_earn

## $reuters_train
## # A tibble: 2,877 x 2
##    doc_id earn_ind
##     <int>    <int>
##  1      5        1
##  2      7        1
##  3      8        1
##  4      9        1
##  5     10        1
##  6     11        1
##  7     15        1
##  8     16        1
##  9     18        1
## 10     22        1
## # ... with 2,867 more rows
## 
## $reuters_test
## # A tibble: 1,087 x 2
##    doc_id earn_ind
##     <int>    <int>
##  1     21        1
##  2     22        1
##  3     31        1
##  4     32        1
##  5     33        1
##  6     34        1
##  7     50        1
##  8     54        1
##  9     58        1
## 10     67        1
## # ... with 1,077 more rows
Label Documents

Using the reference table of documents containing the topic of “earn,” label all training and testing documents with a binary indicator for the presence (1) or absence (0) of the topic “earn.”

labeled_documents = map2(document_text, documents_with_earn, function(x, y) {
  left_join(x = x, 
            y = y, 
            by = "doc_id") %>%
    mutate(earn_ind = ifelse(is.na(earn_ind), "0", earn_ind)) 
})

labeled_documents

## $reuters_train
## # A tibble: 8,762 x 3
##    doc_id body_text                                                earn_ind
##     <int> <chr>                                                    <chr>   
##  1      1 showers continued throughout the week in the bahia coco~ 0       
##  2      2 the u s  agriculture department reported the farmer own~ 0       
##  3      3 argentine grain board figures show crop registrations o~ 0       
##  4      4 moody s investors service inc said it lowered the debt ~ 0       
##  5      5 champion products inc said its board of directors appro~ 1       
##  6      6 computer terminal systems inc said it has completed the~ 0       
##  7      7 shr    cts vs      dlrs     net         vs             ~ 1       
##  8      8 ohio mattress co said its first quarter  ending februar~ 1       
##  9      9 oper shr loss two cts vs profit seven cts     oper shr ~ 1       
## 10     10 shr one dlr vs    cts     net      mln vs      mln     ~ 1       
## # ... with 8,752 more rows
## 
## $reuters_test
## # A tibble: 3,009 x 3
##    doc_id body_text                                                earn_ind
##     <int> <chr>                                                    <chr>   
##  1      1 mounting trade friction between the u s  and japan has ~ 0       
##  2      2 a survey of    provinces and seven cities showed vermin~ 0       
##  3      3 the ministry of international trade and industry  miti ~ 0       
##  4      4 thailand s trade deficit widened to     billion baht in~ 0       
##  5      5 indonesia expects crude palm oil  cpo  prices to rise s~ 0       
##  6      7 tug crews in new south wales  nsw   victoria and wester~ 0       
##  7      8 the indonesian commodity exchange is likely to start tr~ 0       
##  8      9 food department officials said the u s  department of a~ 0       
##  9     10 western mining corp holdings ltd  lt wmng s   wmc  said~ 0       
## 10     11 sumitomo bank ltd  lt sumi t  is certain to lose its st~ 0       
## # ... with 2,999 more rows
…
