…
Developing a stemmer is far simpler than building a lemmatizer, but the tradeoff is loss of quality. For lemmatization, deep linguistics knowledge is required to create the dictionaries that allow the algorithm to look for the proper form of the word. Once this is done, the noise will be reduced and the results provided on the information retrieval process will be more accurate.

Stopwords

Stopwords are commonly used words that provide little to no information about the text and are best ignored. “The”, “so” are examples.

word_tokens %>%
  inner_join(stop_words, by = "word") %>%
  count(word) %>%
  arrange(desc(n))

## # A tibble: 660 x 2
##    word       n
##    <chr>  <int>
##  1 the   196413
##  2 of    106221
##  3 to    103692
##  4 in     79146
##  5 and    76635
##  6 a      74727
##  7 said   47594
##  8 d      44786
##  9 for    38232
## 10 it     30801
## # ... with 650 more rows
…
Document-Topic Co-Occurence Matrix

reuters_topics %>%
  mutate(txt = str_replace_all(txt, "D|TOPICS|-", "")) %>%
  unnest_tokens(word, txt) %>%
  mutate(topic_ind = 1) %>%
  distinct() %>%
  spread(word, topic_ind, fill = 0) 

## # A tibble: 7,775 x 116
##    doc_id   acq  alum austdlr barley   bop   can carcass castoroil
##     <int> <dbl> <dbl>   <dbl>  <dbl> <dbl> <dbl>   <dbl>     <dbl>
##  1      1     0     0       0      0     0     0       0         0
##  2      2     0     0       0      1     0     0       0         0
##  3      3     0     0       0      0     0     0       0         0
##  4      5     0     0       0      0     0     0       0         0
##  5      6     1     0       0      0     0     0       0         0
##  6      7     0     0       0      0     0     0       0         0
##  7      8     1     0       0      0     0     0       0         0
##  8      9     0     0       0      0     0     0       0         0
##  9     10     0     0       0      0     0     0       0         0
## 10     11     0     0       0      0     0     0       0         0
## # ... with 7,765 more rows, and 107 more variables: castorseed <dbl>,
## #   citruspulp <dbl>, cocoa <dbl>, coconut <dbl>, coconutoil <dbl>,
## #   coffee <dbl>, copper <dbl>, copracake <dbl>, corn <dbl>,
## #   cornglutenfeed <dbl>, cornoil <dbl>, cotton <dbl>, cottonoil <dbl>,
## #   cpi <dbl>, cpu <dbl>, crude <dbl>, cruzado <dbl>, dfl <dbl>,
## #   dkr <dbl>, dlr <dbl>, dmk <dbl>, earn <dbl>, fishmeal <dbl>,
## #   fuel <dbl>, gas <dbl>, gnp <dbl>, gold <dbl>, grain <dbl>,
## #   groundnut <dbl>, groundnutoil <dbl>, heat <dbl>, hog <dbl>,
## #   housing <dbl>, income <dbl>, instaldebt <dbl>, interest <dbl>,
…
It appears about 2,000 documents have no topics.

Documents Containing Topic “earn”

earn_topics <- reuters_topics %>%
  filter(str_detect(txt, "earn")) 

earn_docs <- document_tokens %>%
  mutate(doc_id = row_number()) %>%
  semi_join(earn_topics, by = "doc_id") 

earn_docs

## # A tibble: 2,877 x 2
##    article                                                           doc_id
##    <chr>                                                              <int>
##  1 "\n<reuters topics=\"yes\" lewissplit=\"train\" cgisplit=\"train~      5
##  2 "\n<reuters topics=\"yes\" lewissplit=\"train\" cgisplit=\"train~      7
##  3 "\n<reuters topics=\"yes\" lewissplit=\"train\" cgisplit=\"train~      8
##  4 "\n<reuters topics=\"yes\" lewissplit=\"train\" cgisplit=\"train~      9
##  5 "\n<reuters topics=\"yes\" lewissplit=\"train\" cgisplit=\"train~     10
##  6 "\n<reuters topics=\"yes\" lewissplit=\"train\" cgisplit=\"train~     11
##  7 "\n<reuters topics=\"yes\" lewissplit=\"train\" cgisplit=\"train~     15
##  8 "\n<reuters topics=\"yes\" lewissplit=\"train\" cgisplit=\"train~     16
##  9 "\n<reuters topics=\"yes\" lewissplit=\"train\" cgisplit=\"train~     18
## 10 "\n<reuters topics=\"yes\" lewissplit=\"train\" cgisplit=\"train~     22
## # ... with 2,867 more rows
…
## # A tibble: 6 x 2
##   lemma        n
##   <chr>    <int>
## 1 topic     8631
## 2 mln       7779
## 3 company   6949
## 4 unknown   5876
## 5 exchange  5855
## 6 date      5806

Application: Dictionary-based Sentiment Analysis

tidytext::sentiments

## # A tibble: 27,314 x 4
##    word        sentiment lexicon score
##    <chr>       <chr>     <chr>   <int>
##  1 abacus      trust     nrc        NA
##  2 abandon     fear      nrc        NA
##  3 abandon     negative  nrc        NA
##  4 abandon     sadness   nrc        NA
##  5 abandoned   anger     nrc        NA
##  6 abandoned   fear      nrc        NA
##  7 abandoned   negative  nrc        NA
##  8 abandoned   sadness   nrc        NA
##  9 abandonment anger     nrc        NA
## 10 abandonment fear      nrc        NA
## # ... with 27,304 more rows
…
