…
library(tidyverse)
library(lubridate)
library(fable)
library(fabletools)
library(tsibble)

Data

The sample data can be downloaded here. It is a generic data set curated for the purpose of this post.

claims <- read_csv("sample_claims.csv")

claims

## # A tibble: 1,461 x 7
##    Date       Inc_Month  Inc_Year   DOW DOW_Name  Claims Population
##    <date>     <date>        <dbl> <dbl> <chr>      <dbl>      <dbl>
##  1 2016-01-01 2016-01-01     2016     6 Friday     1204.     88072.
##  2 2016-01-02 2016-01-01     2016     7 Saturday   1435.     88072.
##  3 2016-01-03 2016-01-01     2016     1 Sunday      912.     88072.
##  4 2016-01-04 2016-01-01     2016     2 Monday     7026.     88072.
##  5 2016-01-05 2016-01-01     2016     3 Tuesday    6913.     88072.
##  6 2016-01-06 2016-01-01     2016     4 Wednesday  6890.     88072.
##  7 2016-01-07 2016-01-01     2016     5 Thursday   6684      88072.
##  8 2016-01-08 2016-01-01     2016     6 Friday     6030.     88072.
##  9 2016-01-09 2016-01-01     2016     7 Saturday   1601.     88072.
## 10 2016-01-10 2016-01-01     2016     1 Sunday      879.     88072.
## # ... with 1,451 more rows
…
Count of each weekday per month

dow_counts <- claims %>%
  group_by(Inc_Month, Inc_Year, DOW_Name) %>%
  summarise(
    Total_Claims = sum(Claims),
    Occurences = n_distinct(Date)
  ) %>%
  ungroup()

dow_counts

## # A tibble: 336 x 5
##    Inc_Month  Inc_Year DOW_Name  Total_Claims Occurences
##    <date>        <dbl> <chr>            <dbl>      <int>
##  1 2016-01-01     2016 Friday          24545.          5
##  2 2016-01-01     2016 Monday          27591.          4
##  3 2016-01-01     2016 Saturday         7674.          5
##  4 2016-01-01     2016 Sunday           4422.          5
##  5 2016-01-01     2016 Thursday        25626.          4
##  6 2016-01-01     2016 Tuesday         26542.          4
##  7 2016-01-01     2016 Wednesday       26632.          4
##  8 2016-02-01     2016 Friday          22331.          4
##  9 2016-02-01     2016 Monday          34989.          5
## 10 2016-02-01     2016 Saturday         6082.          4
## # ... with 326 more rows
…
