Quantifying "month composition" to improve monthly forecasts | Abnormal Distributions
…
Data

The sample data can be downloaded here. It is a generic data set curated for the purpose of this post.

Daily claims

The original data contains daily claim counts. In order to calculate the calendar adjustments, daily data is required.

claims <- read_csv("sample_claims.csv")

claims 

## # A tibble: 1,461 x 7
##    Date       Inc_Month  Inc_Year   DOW DOW_Name  Claims Population
##    <date>     <date>        <dbl> <dbl> <chr>      <dbl>      <dbl>
##  1 2016-01-01 2016-01-01     2016     6 Friday     1204.     88072.
##  2 2016-01-02 2016-01-01     2016     7 Saturday   1435.     88072.
##  3 2016-01-03 2016-01-01     2016     1 Sunday      912.     88072.
##  4 2016-01-04 2016-01-01     2016     2 Monday     7026.     88072.
##  5 2016-01-05 2016-01-01     2016     3 Tuesday    6913.     88072.
##  6 2016-01-06 2016-01-01     2016     4 Wednesday  6890.     88072.
##  7 2016-01-07 2016-01-01     2016     5 Thursday   6684      88072.
##  8 2016-01-08 2016-01-01     2016     6 Friday     6030.     88072.
##  9 2016-01-09 2016-01-01     2016     7 Saturday   1601.     88072.
## 10 2016-01-10 2016-01-01     2016     1 Sunday      879.     88072.
## # ... with 1,451 more rows
Monthly claims

Since the ultimate goal is to forecast monthly claims, the daily data is aggregated to monthly data.

monthly_claims <- claims %>%
  group_by(Inc_Month, Inc_Year) %>%
  summarise(
    Total_Claims = sum(Claims),
    Population = mean(Population)
  ) %>%
  ungroup()

monthly_claims

## # A tibble: 48 x 4
##    Inc_Month  Inc_Year Total_Claims Population
##    <date>        <dbl>        <dbl>      <dbl>
##  1 2016-01-01     2016      143031.     88072.
##  2 2016-02-01     2016      143095.     88002.
##  3 2016-03-01     2016      155876.     87893.
##  4 2016-04-01     2016      146057.     87894.
##  5 2016-05-01     2016      147634.     87689 
##  6 2016-06-01     2016      148985.     87653 
##  7 2016-07-01     2016      134767.     87239.
##  8 2016-08-01     2016      152131.     87182.
##  9 2016-09-01     2016      144339.     87302.
## 10 2016-10-01     2016      149476.     87341.
## # ... with 38 more rows
…
For each month, calculate effective days by multiplying the weekday occurences by the weekday relative values. Sum these products to arrive at the final effective days calculation.

Weekday occurences per month

weekday_counts <- claims %>%
  group_by(Inc_Month, Inc_Year, DOW_Name, DOW) %>%
  summarise(
    Total_Claims = sum(Claims),
    Occurences = n_distinct(Date)
  ) %>%
  ungroup()

weekday_counts

## # A tibble: 336 x 6
##    Inc_Month  Inc_Year DOW_Name    DOW Total_Claims Occurences
##    <date>        <dbl> <chr>     <dbl>        <dbl>      <int>
##  1 2016-01-01     2016 Friday        6       24545.          5
##  2 2016-01-01     2016 Monday        2       27591.          4
##  3 2016-01-01     2016 Saturday      7        7674.          5
##  4 2016-01-01     2016 Sunday        1        4422.          5
##  5 2016-01-01     2016 Thursday      5       25626.          4
##  6 2016-01-01     2016 Tuesday       3       26542.          4
##  7 2016-01-01     2016 Wednesday     4       26632.          4
##  8 2016-02-01     2016 Friday        6       22331.          4
##  9 2016-02-01     2016 Monday        2       34989.          5
## 10 2016-02-01     2016 Saturday      7        6082.          4
## # ... with 326 more rows
…
effective_days

## # A tibble: 48 x 4
##    Inc_Month  Actual_Days Effective_Days Effective_Days_Index
##    <date>           <int>          <dbl>                <dbl>
##  1 2016-01-01          31           29.5                0.969
##  2 2016-02-01          29           29.4                0.966
##  3 2016-03-01          31           32.0                1.05 
##  4 2016-04-01          30           29.5                0.967
##  5 2016-05-01          31           30.8                1.01 
##  6 2016-06-01          30           30.6                1.01 
##  7 2016-07-01          31           29.6                0.973
##  8 2016-08-01          31           32.2                1.06 
##  9 2016-09-01          30           30.5                1.00 
## 10 2016-10-01          31           29.8                0.979
## # ... with 38 more rows
…
