Segmenting Medicare STAR measures based on time-based trends in the distributions of contract scores | Abnormal Distributions
…
Contract scores

scores <- scores_df %>%
  inner_join(sample_measures, by = "clean_measure") %>%
  select(clean_measure,
         CONTRACT_ID,
         star_year,
         score) %>%
  drop_na()

scores

## # A tibble: 49,122 x 4
##    clean_measure      CONTRACT_ID star_year score
##    <chr>              <chr>           <dbl> <dbl>
##  1 annual_flu_vaccine H0028            2015  0.79
##  2 annual_flu_vaccine H0084            2015  0.67
##  3 annual_flu_vaccine H0104            2015  0.65
##  4 annual_flu_vaccine H0108            2015  0.7 
##  5 annual_flu_vaccine H0150            2015  0.67
##  6 annual_flu_vaccine H0151            2015  0.66
##  7 annual_flu_vaccine H0154            2015  0.66
##  8 annual_flu_vaccine H0251            2015  0.69
##  9 annual_flu_vaccine H0294            2015  0.72
## 10 annual_flu_vaccine H0302            2015  0.74
## # ... with 49,112 more rows
…
