A template for comparing point forecasts using traditional models, Prophet, and supervised machine learning | Abnormal Distributions
…
# Forecasting frameworks
library(forecast)
library(h2o)
library(prophet)

Data

The data used in this example contains monthly health insurance claims with calendar and population adjustment already applied. The target variable is Adj_PMPM.

sample_df <- read_csv("sample_pmpm.csv") 

sample_df

## # A tibble: 48 x 5
##    Inc_Month  Adj_PMPM Total_Claims Population Effective_Days_Index
##    <date>        <dbl>        <dbl>      <dbl>                <dbl>
##  1 2016-01-01     1.68      143031.     88072.                0.969
##  2 2016-02-01     1.68      143095.     88002.                0.966
##  3 2016-03-01     1.69      155876.     87893.                1.05 
##  4 2016-04-01     1.72      146057.     87894.                0.967
##  5 2016-05-01     1.66      147634.     87689                 1.01 
##  6 2016-06-01     1.69      148985.     87653                 1.01 
##  7 2016-07-01     1.59      134767.     87239.                0.973
##  8 2016-08-01     1.65      152131.     87182.                1.06 
##  9 2016-09-01     1.65      144339.     87302.                1.00 
## 10 2016-10-01     1.75      149476.     87341.                0.979
## # ... with 38 more rows
…
cv_splits <- map(horizons, function(i) {
  rsample::rolling_origin(
    data = sample_df,
    initial = 36,
    assess = i,
    cumulative = T,
    lag = 12
  ) 
}) %>%
  bind_rows()

cv_splits

## # A tibble: 31 x 2
##    splits          id     
##    <list>          <chr>  
##  1 <split [36/13]> Slice01
##  2 <split [37/13]> Slice02
##  3 <split [38/13]> Slice03
##  4 <split [39/13]> Slice04
##  5 <split [40/13]> Slice05
##  6 <split [41/13]> Slice06
##  7 <split [42/13]> Slice07
##  8 <split [43/13]> Slice08
##  9 <split [44/13]> Slice09
## 10 <split [45/13]> Slice10
## # ... with 21 more rows
…
